Appendix: Using tidycensus to extract relevant census data | Exploring the Geography of Systemic Racism with Spatial Data Science
…
## Getting data from the 2010 decennial Census

## Using Census Summary File 1

We can print the first few lines of the dataset to the console to view its structure, and ensure that everything looks in order:

# prints contents of "co_counties_race"
co_counties_race

## # A tibble: 64 × 48
##    GEOID NAME        total_pop totalpop_men_u5 totalpop_men_5t… totalpop_men_10…
##    <chr> <chr>           <dbl>           <dbl>            <dbl>            <dbl>
##  1 08023 Costilla C…      3524              99              102              107
##  2 08025 Crowley Co…      5823              88              110              136
##  3 08027 Custer Cou…      4255              62               95              113
##  4 08029 Delta Coun…     30952             887              913             1042
##  5 08031 Denver Cou…    600158           22252            18894            15319
##  6 08035 Douglas Co…    285465           11278            13587            12664
##  7 08033 Dolores Co…      2064              58               63               71
##  8 08049 Grand Coun…     14843             416              421              431
##  9 08039 Elbert Cou…     23086             594              790              976
## 10 08041 El Paso Co…    622263           23152            23050            23252
## # … with 54 more rows, and 42 more variables: totalpop_men_15to17 <dbl>,
## #   totalpop_women_u5 <dbl>, totalpop_women_5to9 <dbl>,
## #   totalpop_women_10to14 <dbl>, totalpop_women_15to17 <dbl>,
## #   black_totalpop <dbl>, black_men_u1 <dbl>, black_men_1 <dbl>,
## #   black_men_2 <dbl>, black_men_3 <dbl>, black_men_4 <dbl>, black_men_5 <dbl>,
## #   black_men_6 <dbl>, black_men_7 <dbl>, black_men_8 <dbl>, black_men_9 <dbl>,
## #   black_men_10 <dbl>, black_men_11 <dbl>, black_men_12 <dbl>, …
As always, it is also possible to view the dataset in the R Studio data viewer by running View(co_counties_race).

2.25 Step 3: Clean the tidycensus dataset

Having extracted the dataset, you may want to tidy it up depending on your needs and preferences. For example, the “NAME” field includes the name of the state, which is not really necessary here since there are only observations from Colorado in the dataset. The code below removes the state name from the NAME field, and updates the co_counties_race object with this change:

# Remove state name from name field
co_counties_race<-co_counties_race %>% 
                    separate(col=NAME, c("County", "x"), sep=",") %>% 
                     select(-x)     

# Prints contents of "co_counties_race"
co_counties_race

## # A tibble: 64 × 48
##    GEOID County      total_pop totalpop_men_u5 totalpop_men_5t… totalpop_men_10…
##    <chr> <chr>           <dbl>           <dbl>            <dbl>            <dbl>
##  1 08023 Costilla C…      3524              99              102              107
##  2 08025 Crowley Co…      5823              88              110              136
##  3 08027 Custer Cou…      4255              62               95              113
##  4 08029 Delta Coun…     30952             887              913             1042
##  5 08031 Denver Cou…    600158           22252            18894            15319
##  6 08035 Douglas Co…    285465           11278            13587            12664
##  7 08033 Dolores Co…      2064              58               63               71
##  8 08049 Grand Coun…     14843             416              421              431
##  9 08039 Elbert Cou…     23086             594              790              976
## 10 08041 El Paso Co…    622263           23152            23050            23252
## # … with 54 more rows, and 42 more variables: totalpop_men_15to17 <dbl>,
## #   totalpop_women_u5 <dbl>, totalpop_women_5to9 <dbl>,
## #   totalpop_women_10to14 <dbl>, totalpop_women_15to17 <dbl>,
## #   black_totalpop <dbl>, black_men_u1 <dbl>, black_men_1 <dbl>,
## #   black_men_2 <dbl>, black_men_3 <dbl>, black_men_4 <dbl>, black_men_5 <dbl>,
## #   black_men_6 <dbl>, black_men_7 <dbl>, black_men_8 <dbl>, black_men_9 <dbl>,
## #   black_men_10 <dbl>, black_men_11 <dbl>, black_men_12 <dbl>, …
…
2.27 Step 5: Finalize and export the dataset

Now that we have our two key variables defined, let’s clean up the dataset by removing the variables we no longer need, and only keeping the variables necessary to create the bias index. Below, we take the existing dataset assigned to co_counties_race, and select the “GEOID” and “County” variables (which serve as ID variables), “total_black_pop_over17” and “total_pop_over17” (which are used to compute the bias index), and “total_pop” (which is not necessary to create “bias_index”, but which could prove useful in exploring alternate ways of defining a bias index than the one implemented in the tutorial). The new dataset is assigned to an object named co_counties_census_2010:

#Clean data by select relevant variables for analysis, and assign selection to new object named "co_counties_census_2010"
co_counties_census_2010<-
  co_counties_race %>% 
    select(GEOID, County, total_pop, total_black_pop_over17, total_pop_over17)

Let’s view the dataset’s contents:

# prints contents of "co_counties_census_2010"
co_counties_census_2010

## # A tibble: 64 × 5
##    GEOID County          total_pop total_black_pop_over17 total_pop_over17
##    <chr> <chr>               <dbl>                  <dbl>            <dbl>
##  1 08023 Costilla County      3524                     18             2788
##  2 08025 Crowley County       5823                    556             5034
##  3 08027 Custer County        4255                     37             3525
##  4 08029 Delta County        30952                    139            24101
##  5 08031 Denver County      600158                  45338           471392
##  6 08035 Douglas County     285465                   2447           198453
##  7 08033 Dolores County       2064                      4             1602
##  8 08049 Grand County        14843                     43            11825
##  9 08039 Elbert County       23086                    122            17232
## 10 08041 El Paso County     622263                  27280           459587
## # … with 54 more rows
…
