3 Basic data cleaning and filtering | Introduction to Geographic Information Systems
…
# Create "year" field
co_traffic_stops<-co_traffic_stops %>% mutate(Year=substr(co_traffic_stops$date, 1,4))

3.2 Filter by year

# Filter 2010 observations and assign to a new object
co_traffic_stops_2010<-co_traffic_stops %>% filter(Year==2010)

3.3 View the newly created co_traffic_stops_2010 object

# Print contents of "co_traffic_stops_2010" object
co_traffic_stops_2010

## # A tibble: 470,284 × 21
##    raw_row_number      date       time  location county_name subject_age subject_race subject_sex officer_id_hash
##    <chr>               <date>     <lgl> <chr>    <chr>             <dbl> <chr>        <chr>       <chr>          
##  1 188721|188722       2010-04-17 NA    2, 989,… Montezuma …          16 white        female      b737c978e4     
##  2 187958              2010-04-17 NA    991, 32  Montezuma …          54 white        male        89066a8ce8     
##  3 188451              2010-04-17 NA    9, 280,… Montezuma …          49 hispanic     male        7346f3aeb5     
##  4 186989|186990|1869… 2010-04-17 NA    3, 277,… Montezuma …          16 white        male        3c174e7733     
##  5 186997|186998|1869… 2010-04-17 NA    3, 277,… Montezuma …          37 white        male        3c174e7733     
##  6 186993|186994|1869… 2010-04-17 NA    3, 277,… Montezuma …          39 white        male        3c174e7733     
##  7 600865              2010-12-21 NA    164.5, … Mineral Co…         110 <NA>         <NA>        0e48f16a6a     
##  8 600477              2010-12-21 NA    163, 29… Mineral Co…         110 <NA>         <NA>        c85c943fb9     
##  9 36625|36626         2010-01-20 NA    312, H5… Pueblo Cou…          45 hispanic     male        5054b33e13     
## 10 275                 2010-01-01 NA    127, H2… Chaffee Co…          17 white        female      750fd84f12     
## # … with 470,274 more rows, and 12 more variables: officer_sex <chr>, type <chr>, violation <chr>,
## #   arrest_made <lgl>, citation_issued <lgl>, warning_issued <lgl>, outcome <chr>, contraband_found <lgl>,
## #   search_conducted <lgl>, search_basis <chr>, raw_Ethnicity <chr>, Year <chr>
