5 Defining an index of racial bias in traffic stops | Exploring the Geography of Systemic Racism with Spatial Data Science
…
            Exploring the Geography of Systemic Racism with Spatial Data Science

5 Defining an index of racial bias in traffic stops

Let’s briefly take stock of where we are. We started with a massive dataset (over 3,000,000 observations) of traffic patrol stops in the state of Colorado over the course of almost a decade. Over several steps, we worked our way to a county-level dataset containing information on the total number of traffic stops, and the number of those stops involving a Black motorist, over the course of the year 2010. That dataset looks something like this:

# Prints contents of "co_county_black_stops"
co_county_black_stops

# A tibble: 64 × 3
# Rowwise:  county_name
   county_name       black_stops total_stops
   <chr>                   <int>       <int>
 1 Adams County             1208       34350
 2 Alamosa County             43        4478
 3 Arapahoe County          1819       17520
 4 Archuleta County           28        5091
 5 Baca County                61        1511
 6 Bent County                46        1808
 7 Boulder County            192       13053
 8 Broomfield County          22        1095
 9 Chaffee County             37        6521
10 Cheyenne County            38        1106
# … with 54 more rows
…
Based on this logic, a simple county-level indicator of anti-Black bias in traffic stops would simply be the difference between the percentage of traffic stops in a given county involving Black motorists, and the percentage of the county’s overall population that is Black:

County-Level Traffic Stop Bias Index=
(Percentage of County Traffic Stops Involving Black Motorists)-(Percentage of County’s Adult Population that is Black)

As the value of this difference rises above 0, and we see higher positive values for this simple bias index, we might infer higher degrees of discrimination in traffic stops.

Of course, this is a very simple index, and sets aside many complexities (for example, commuting and driving patterns, among other things). However, despite its simplicity, the intuition behind the index is often used in the social science literature on the topic (Stelter et al., 2021); at least to a first approximation, therefore, this index will give us a meaningful way to identify counties in which the behavior of Traffic Patrol might merit greater public scrutiny, on account of disproportionately high stop-rates for the Black population.

Let’s create this index for Colorado counties in the year 2010. Note that we already have the data to compute the first part of the bias index (i.e. the percentage of traffic stops involving Black motorists); this is contained in co_county_black_stops:

# prints contents of "co_county_black_stops"
co_county_black_stops

# A tibble: 64 × 3
# Rowwise:  county_name
   county_name       black_stops total_stops
   <chr>                   <int>       <int>
 1 Adams County             1208       34350
 2 Alamosa County             43        4478
 3 Arapahoe County          1819       17520
 4 Archuleta County           28        5091
 5 Baca County                61        1511
 6 Bent County                46        1808
 7 Boulder County            192       13053
 8 Broomfield County          22        1095
 9 Chaffee County             37        6521
10 Cheyenne County            38        1106
# … with 54 more rows
…
── Column specification ─────────────────────────────────────────────────────────────────────────────────────────
cols(
  GEOID = col_character(),
  County = col_character(),
  total_pop = col_double(),
  total_black_pop_over17 = col_double(),
  total_pop_over17 = col_double()
)

Let’s print the contents of this census dataset:

# Prints contents of "co_counties_census_2010"
co_counties_census_2010

# A tibble: 64 × 5
   GEOID County          total_pop total_black_pop_over17 total_pop_over17
   <chr> <chr>               <dbl>                  <dbl>            <dbl>
 1 08023 Costilla County      3524                     18             2788
 2 08025 Crowley County       5823                    556             5034
 3 08027 Custer County        4255                     37             3525
 4 08029 Delta County        30952                    139            24101
 5 08031 Denver County      600158                  45338           471392
 6 08035 Douglas County     285465                   2447           198453
 7 08033 Dolores County       2064                      4             1602
 8 08049 Grand County        14843                     43            11825
 9 08039 Elbert County       23086                    122            17232
10 08041 El Paso County     622263                  27280           459587
# … with 54 more rows
…
# Joins "co_counties_census_2010" to "co_counties_black_stops" using the
# "county_name" and "County" fields as the join fields; assigns the product 
# of the join to an object named "co_counties_census_trafficstops"

co_counties_census_trafficstops<-
  full_join(co_county_black_stops, co_counties_census_2010,
            by=c("county_name"="County"))

When we open co_counties_census_trafficstops, we should see information from both of the constituent datasets (co_county_black_stops and co_counties_census_2010):

# Prints contents of "co_counties_census_trafficstops"
co_counties_census_trafficstops

# A tibble: 64 × 7
# Rowwise:  county_name
   county_name       black_stops total_stops GEOID total_pop total_black_pop_over17 total_pop_over17
   <chr>                   <int>       <int> <chr>     <dbl>                  <dbl>            <dbl>
 1 Adams County             1208       34350 08001    441603                   9396           315480
 2 Alamosa County             43        4478 08003     15445                    142            11617
 3 Arapahoe County          1819       17520 08005    572003                  40558           424679
 4 Archuleta County           28        5091 08007     12084                     19             9676
 5 Baca County                61        1511 08009      3788                     15             2974
 6 Bent County                46        1808 08011      6499                    486             5403
 7 Boulder County            192       13053 08013    294567                   1961           231813
 8 Broomfield County          22        1095 08014     55889                    415            41237
 9 Chaffee County             37        6521 08015     17809                    264            14821
10 Cheyenne County            38        1106 08017      1836                      4             1386
# … with 54 more rows
…
co_counties_census_trafficstops<-
  co_counties_census_trafficstops %>% 
      mutate(black_stop_pct=((black_stops/total_stops)*100),
             black_pop_pct=((total_black_pop_over17/total_pop_over17)*100))

Having created these two new variables (i.e. the components of the bias index we’ll calculate below) in co_counties_census_trafficstops, let’s view the updated dataset:

# Prints contents of "co_counties_census_trafficstops" object
co_counties_census_trafficstops

# A tibble: 64 × 9
# Rowwise:  county_name
   county_name       black_stop_pct black_pop_pct black_stops total_stops GEOID total_pop total_black_pop_over17
   <chr>                      <dbl>         <dbl>       <int>       <int> <chr>     <dbl>                  <dbl>
 1 Adams County               3.52          2.98         1208       34350 08001    441603                   9396
 2 Alamosa County             0.960         1.22           43        4478 08003     15445                    142
 3 Arapahoe County           10.4           9.55         1819       17520 08005    572003                  40558
 4 Archuleta County           0.550         0.196          28        5091 08007     12084                     19
 5 Baca County                4.04          0.504          61        1511 08009      3788                     15
 6 Bent County                2.54          9.00           46        1808 08011      6499                    486
 7 Boulder County             1.47          0.846         192       13053 08013    294567                   1961
 8 Broomfield County          2.01          1.01           22        1095 08014     55889                    415
 9 Chaffee County             0.567         1.78           37        6521 08015     17809                    264
10 Cheyenne County            3.44          0.289          38        1106 08017      1836                      4
# … with 54 more rows, and 1 more variable: total_pop_over17 <dbl>
…
We’ll begin by creating a new variable in co_counties_census_trafficstops, which we’ll call “bias_index”, that contains the bias index for each county in the dataset (calculated by subtracting “black_pop_pct” from “black_stop_pct” for each county). The code below creates this new “bias_index” variable, and assigns the dataset with this new variable back to the co_counties_census_trafficstops object:

# Creates new variable in "co_counties_census_trafficstops" named "bias_index" 
# that is defined as the difference between the existing "black_stop_pct" and   
# "black_pop_pct" variables
co_counties_census_trafficstops<-
  co_counties_census_trafficstops %>% 
      mutate(bias_index=black_stop_pct-black_pop_pct)

Note that the county-level “bias_index” variable is now in the dataset assigned to the co_counties_census_trafficstops object:

# prints contents of "co_counties_census_trafficstops"
co_counties_census_trafficstops

# A tibble: 64 × 10
# Rowwise:  county_name
   county_name   bias_index black_stop_pct black_pop_pct black_stops total_stops GEOID total_pop total_black_pop…
   <chr>              <dbl>          <dbl>         <dbl>       <int>       <int> <chr>     <dbl>            <dbl>
 1 Adams County       0.538          3.52          2.98         1208       34350 08001    441603             9396
 2 Alamosa Coun…     -0.262          0.960         1.22           43        4478 08003     15445              142
 3 Arapahoe Cou…      0.832         10.4           9.55         1819       17520 08005    572003            40558
 4 Archuleta Co…      0.354          0.550         0.196          28        5091 08007     12084               19
 5 Baca County        3.53           4.04          0.504          61        1511 08009      3788               15
 6 Bent County       -6.45           2.54          9.00           46        1808 08011      6499              486
 7 Boulder Coun…      0.625          1.47          0.846         192       13053 08013    294567             1961
 8 Broomfield C…      1.00           2.01          1.01           22        1095 08014     55889              415
 9 Chaffee Coun…     -1.21           0.567         1.78           37        6521 08015     17809              264
10 Cheyenne Cou…      3.15           3.44          0.289          38        1106 08017      1836                4
# … with 54 more rows, and 1 more variable: total_pop_over17 <dbl>
…
The following code takes the dataset currently assigned to theco_counties_census_trafficstops object, and then uses the mutate() function to create a new field named “County”, which is populated by taking the existing “county_name” column and using the str_remove() function to remove the part of the “county_name” string that reads “County”. It then assigns the modified dataset back to the co_counties_census_trafficstops object, which overwrites the previous version of the dataset:

# Creates new variable named "County" that removes "County" string
# from "county_name" variable
co_counties_census_trafficstops<-
  co_counties_census_trafficstops %>% 
     mutate(County=str_remove(county_name, " County"))

Let’s confirm that the new “County” field has been successfully created:

# prints "co_counties_census_trafficstops"
co_counties_census_trafficstops

# A tibble: 64 × 11
# Rowwise:  county_name
   county_name       County     bias_index black_stop_pct black_pop_pct black_stops total_stops GEOID total_pop
   <chr>             <chr>           <dbl>          <dbl>         <dbl>       <int>       <int> <chr>     <dbl>
 1 Adams County      Adams           0.538          3.52          2.98         1208       34350 08001    441603
 2 Alamosa County    Alamosa        -0.262          0.960         1.22           43        4478 08003     15445
 3 Arapahoe County   Arapahoe        0.832         10.4           9.55         1819       17520 08005    572003
 4 Archuleta County  Archuleta       0.354          0.550         0.196          28        5091 08007     12084
 5 Baca County       Baca            3.53           4.04          0.504          61        1511 08009      3788
 6 Bent County       Bent           -6.45           2.54          9.00           46        1808 08011      6499
 7 Boulder County    Boulder         0.625          1.47          0.846         192       13053 08013    294567
 8 Broomfield County Broomfield      1.00           2.01          1.01           22        1095 08014     55889
 9 Chaffee County    Chaffee        -1.21           0.567         1.78           37        6521 08015     17809
10 Cheyenne County   Cheyenne        3.15           3.44          0.289          38        1106 08017      1836
# … with 54 more rows, and 2 more variables: total_black_pop_over17 <dbl>, total_pop_over17 <dbl>
…
