2 Loading data | Exploring the Geography of Systemic Racism with Spatial Data Science
…
Once the traffic patrol data has been read into R studio and assigned to an object, we can print the contents of the dataset to the console by typing the name of that object into the R Studio console or by printing (and running) the name of the object from a script (note that only the first few records will be printed to the console):

# Print the contents of "co_traffic_stops" (i.e. the CO traffic patrol data) 
# to the console; the first few records of the dataset will print
co_traffic_stops

# A tibble: 3,112,853 × 20
   raw_row_number      date       time  location county_name subject_age subject_race subject_sex officer_id_hash
   <chr>               <date>     <lgl> <chr>    <chr>             <dbl> <chr>        <chr>       <chr>          
 1 1947986|1947987     2013-06-19 NA    19, I70… Mesa County          26 hispanic     male        b942632983     
 2 1537576             2012-08-24 NA    254, H2… Jefferson …          NA <NA>         <NA>        f3d4f46927     
 3 1581594             2012-09-23 NA    115, I7… Logan Coun…          52 white        male        6e49e2fbc8     
 4 1009205             2011-08-25 NA    197, H8… Douglas Co…          32 white        female      eaea851669     
 5 1932619             2013-06-08 NA    107, H2… Kiowa Coun…          33 hispanic     male        d18e34d749     
 6 1179436             2011-12-23 NA    48, 384… Boulder Co…          NA <NA>         <NA>        b84c696aed     
 7 1326795             2012-04-07 NA    0, R250… Boulder Co…          39 white        male        4c0279748e     
 8 1786795             2013-03-03 NA    19, E47… Arapahoe C…          44 white        female      e6b5b9bb98     
 9 1552164             2012-09-02 NA    224, H2… Park County          NA <NA>         <NA>        43f1f150d3     
10 1004281|1004282|10… 2011-08-21 NA    R2000, … Adams Coun…          32 hispanic     male        dd2f10b6f8     
# … with 3,112,843 more rows, and 11 more variables: officer_sex <chr>, type <chr>, violation <chr>,
#   arrest_made <lgl>, citation_issued <lgl>, warning_issued <lgl>, outcome <chr>, contraband_found <lgl>,
#   search_conducted <lgl>, search_basis <chr>, raw_Ethnicity <chr>
…
