A Using tidycensus to extract relevant census data | Exploring the Geography of Systemic Racism with Spatial Data Science
…
## Getting data from the 2010 decennial Census

## Using FIPS code '08' for state 'CO'

## Using Census Summary File 1

We can print the first few lines of the dataset to the console to view its structure, and ensure that everything looks in order:

# prints contents of "co_counties_race"
co_counties_race

# A tibble: 64 × 48
   GEOID NAME       total_pop totalpop_men_u5 totalpop_men_5t… totalpop_men_10… totalpop_men_15… totalpop_women_…
   <chr> <chr>          <dbl>           <dbl>            <dbl>            <dbl>            <dbl>            <dbl>
 1 08023 Costilla …      3524              99              102              107               95               76
 2 08025 Crowley C…      5823              88              110              136               81               94
 3 08027 Custer Co…      4255              62               95              113               85               74
 4 08029 Delta Cou…     30952             887              913             1042              680              865
 5 08031 Denver Co…    600158           22252            18894            15319             8920            21263
 6 08035 Douglas C…    285465           11278            13587            12664             6913            10622
 7 08033 Dolores C…      2064              58               63               71               40               78
 8 08049 Grand Cou…     14843             416              421              431              261              422
 9 08039 Elbert Co…     23086             594              790              976              611              563
10 08041 El Paso C…    622263           23152            23050            23252            14097            22060
# … with 54 more rows, and 40 more variables: totalpop_women_5to9 <dbl>, totalpop_women_10to14 <dbl>,
#   totalpop_women_15to17 <dbl>, black_totalpop <dbl>, black_men_u1 <dbl>, black_men_1 <dbl>, black_men_2 <dbl>,
#   black_men_3 <dbl>, black_men_4 <dbl>, black_men_5 <dbl>, black_men_6 <dbl>, black_men_7 <dbl>,
#   black_men_8 <dbl>, black_men_9 <dbl>, black_men_10 <dbl>, black_men_11 <dbl>, black_men_12 <dbl>,
#   black_men_13 <dbl>, black_men_14 <dbl>, black_men_15 <dbl>, black_men_16 <dbl>, black_men_17 <dbl>,
#   black_women_u1 <dbl>, black_women_1 <dbl>, black_women_2 <dbl>, black_women_3 <dbl>, black_women_4 <dbl>,
#   black_women_5 <dbl>, black_women_6 <dbl>, black_women_7 <dbl>, black_women_8 <dbl>, black_women_9 <dbl>, …
…
A.3 Clean the tidycensus dataset

Having extracted the dataset, you may want to tidy it up, depending on your needs and preferences. For example, the “NAME” field includes the name of the state, which is not really necessary here since there are only observations from Colorado in the dataset. The code below creates a new variable named “County”, which is populated by removing the state name from the “NAME” field, and updates the co_counties_race object with this new variable:

# Remove state name from NAME field
co_counties_race<-co_counties_race %>% 
                  mutate(County=str_remove_all(NAME, ", Colorado"))   

Note the newly created “County” variable is now in the dataset:

# Prints contents of "co_counties_race"
co_counties_race

# A tibble: 64 × 49
   GEOID County          NAME        total_pop totalpop_men_u5 totalpop_men_5t… totalpop_men_10… totalpop_men_15…
   <chr> <chr>           <chr>           <dbl>           <dbl>            <dbl>            <dbl>            <dbl>
 1 08023 Costilla County Costilla C…      3524              99              102              107               95
 2 08025 Crowley County  Crowley Co…      5823              88              110              136               81
 3 08027 Custer County   Custer Cou…      4255              62               95              113               85
 4 08029 Delta County    Delta Coun…     30952             887              913             1042              680
 5 08031 Denver County   Denver Cou…    600158           22252            18894            15319             8920
 6 08035 Douglas County  Douglas Co…    285465           11278            13587            12664             6913
 7 08033 Dolores County  Dolores Co…      2064              58               63               71               40
 8 08049 Grand County    Grand Coun…     14843             416              421              431              261
 9 08039 Elbert County   Elbert Cou…     23086             594              790              976              611
10 08041 El Paso County  El Paso Co…    622263           23152            23050            23252            14097
# … with 54 more rows, and 41 more variables: totalpop_women_u5 <dbl>, totalpop_women_5to9 <dbl>,
#   totalpop_women_10to14 <dbl>, totalpop_women_15to17 <dbl>, black_totalpop <dbl>, black_men_u1 <dbl>,
#   black_men_1 <dbl>, black_men_2 <dbl>, black_men_3 <dbl>, black_men_4 <dbl>, black_men_5 <dbl>,
#   black_men_6 <dbl>, black_men_7 <dbl>, black_men_8 <dbl>, black_men_9 <dbl>, black_men_10 <dbl>,
#   black_men_11 <dbl>, black_men_12 <dbl>, black_men_13 <dbl>, black_men_14 <dbl>, black_men_15 <dbl>,
#   black_men_16 <dbl>, black_men_17 <dbl>, black_women_u1 <dbl>, black_women_1 <dbl>, black_women_2 <dbl>,
#   black_women_3 <dbl>, black_women_4 <dbl>, black_women_5 <dbl>, black_women_6 <dbl>, black_women_7 <dbl>, …
…
Now that we have our two key variables defined, let’s clean up the dataset by removing the variables we no longer need, only keeping the variables necessary to help create the bias index. Below, we take the existing dataset assigned to co_counties_race, and select the “GEOID” and “County” variables (which serve as ID variables), “total_black_pop_over17” and “total_pop_over17” (which are used to compute the bias index), and “total_pop” (which is not necessary to create “bias_index”, but which could prove useful in exploring alternate ways of defining a bias index than the one implemented in the tutorial). The new dataset is assigned to an object named co_counties_census_2010:

# Clean data by select relevant variables for analysis, and assign 
# selection to new object named "co_counties_census_2010"
co_counties_census_2010<-
  co_counties_race %>% 
    select(GEOID, County, total_pop, total_black_pop_over17, total_pop_over17)

Let’s now view the contents of co_counties_census_2010:

# prints contents of "co_counties_census_2010"
co_counties_census_2010

# A tibble: 64 × 5
   GEOID County          total_pop total_black_pop_over17 total_pop_over17
   <chr> <chr>               <dbl>                  <dbl>            <dbl>
 1 08023 Costilla County      3524                     18             2788
 2 08025 Crowley County       5823                    556             5034
 3 08027 Custer County        4255                     37             3525
 4 08029 Delta County        30952                    139            24101
 5 08031 Denver County      600158                  45338           471392
 6 08035 Douglas County     285465                   2447           198453
 7 08033 Dolores County       2064                      4             1602
 8 08049 Grand County        14843                     43            11825
 9 08039 Elbert County       23086                    122            17232
10 08041 El Paso County     622263                  27280           459587
# … with 54 more rows
…
